FFT/fft_output.txt
                         Chronologic VCS (TM)
       Version U-2023.03-SP2_Full64 -- Sun May 12 08:47:23 2024

                    Copyright (c) 1991 - 2023 Synopsys, Inc.
   This software and the associated documentation are proprietary to Synopsys,
 Inc. This software may only be used in accordance with the terms and conditions
 of a written license agreement with Synopsys, Inc. All other use, reproduction,
   or distribution of this software is strictly prohibited.  Licensed Products
     communicate with Synopsys servers for the purpose of providing software
    updates, detecting software piracy and verifying that customers are using
    Licensed Products in conformity with the applicable License Key for such
  Licensed Products. Synopsys will use information gathered in connection with
    this process to deliver software updates and pursue software pirates and
                                   infringers.

 Inclusivity & Diversity - Visit SolvNetPlus to read the "Synopsys Statement on
            Inclusivity and Diversity" (Refer to article 000036315 at
                        https://solvnetplus.synopsys.com)

Parsing design file 'design.sv'
Parsing design file 'testbench.sv'
Parsing included file 'tw_factor.sv'.
Back to file 'testbench.sv'.
Top Level Modules:
       tb
TimeScale is 1 ns / 1 ns
Starting vcs inline pass...

2 modules and 0 UDP read.
recompiling package tw_factor_pkg
recompiling module tb
Both modules done.
rm -f _cuarc*.so _csrc*.so pre_vcsobj_*.so share_vcsobj_*.so
if [ -x ../simv ]; then chmod a-x ../simv; fi
g++  -o ../simv      -rdynamic  -Wl,-rpath='$ORIGIN'/simv.daidir -Wl,-rpath=./simv.daidir -Wl,-rpath=/apps/vcsmx/vcs/U-2023.03-SP2/linux64/lib -L/apps/vcsmx/vcs/U-2023.03-SP2/linux64/lib  -Wl,-rpath-link=./   objs/amcQw_d.o   _332_archive_1.so   SIM_l.o       rmapats_mop.o rmapats.o rmar.o rmar_nd.o  rmar_llvm_0_1.o rmar_llvm_0_0.o            -lvirsim -lerrorinf -lsnpsmalloc -lvfs    -lvcsnew -lsimprofile -luclinative /apps/vcsmx/vcs/U-2023.03-SP2/linux64/lib/vcs_tls.o   -Wl,-whole-archive  -lvcsucli    -Wl,-no-whole-archive          /apps/vcsmx/vcs/U-2023.03-SP2/linux64/lib/vcs_save_restore_new.o -ldl  -lc -lm -lpthread -ldl 
../simv up to date
CPU time: .475 seconds to compile + .356 seconds to elab + .341 seconds to link
Chronologic VCS simulator copyright 1991-2023
Contains Synopsys proprietary information.
Compiler version U-2023.03-SP2_Full64; Runtime version U-2023.03-SP2_Full64;  May 12 08:47 2024
time=0,ADDR=0,xR=0.244751,xI=0.000000,DinR=1f54,DinI=0
time=10,ADDR=1,xR=0.013672,xI=0.000000,DinR=1c0,DinI=0
time=20,ADDR=2,xR=-0.110016,xI=0.000000,DinR=f1eb,DinI=0
time=30,ADDR=3,xR=-0.010681,xI=0.000000,DinR=fea2,DinI=0
time=40,ADDR=4,xR=-0.003418,xI=0.000000,DinR=ff90,DinI=0
time=50,ADDR=5,xR=-0.005981,xI=0.000000,DinR=ff3c,DinI=0
time=60,ADDR=6,xR=0.002899,xI=0.000000,DinR=5f,DinI=0
time=70,ADDR=7,xR=-0.011261,xI=0.000000,DinR=fe8f,DinI=0
time=80,ADDR=8,xR=-0.045441,xI=0.000000,DinR=fa2f,DinI=0
time=90,ADDR=9,xR=0.025696,xI=0.000000,DinR=34a,DinI=0
time=100,ADDR=10,xR=0.013763,xI=0.000000,DinR=1c3,DinI=0
time=110,ADDR=11,xR=-0.003143,xI=0.000000,DinR=ff99,DinI=0
time=120,ADDR=12,xR=0.005463,xI=0.000000,DinR=b3,DinI=0
time=130,ADDR=13,xR=0.001404,xI=0.000000,DinR=2e,DinI=0
time=140,ADDR=14,xR=0.012573,xI=0.000000,DinR=19c,DinI=0
time=150,ADDR=15,xR=-0.037201,xI=0.000000,DinR=fb3d,DinI=0
time=160,ADDR=16,xR=0.026672,xI=0.000000,DinR=36a,DinI=0
time=170,ADDR=17,xR=0.019440,xI=0.000000,DinR=27d,DinI=0
time=180,ADDR=18,xR=-0.001556,xI=0.000000,DinR=ffcd,DinI=0
time=190,ADDR=19,xR=0.002747,xI=0.000000,DinR=5a,DinI=0
time=200,ADDR=20,xR=-0.020203,xI=0.000000,DinR=fd6a,DinI=0
time=210,ADDR=21,xR=0.022247,xI=0.000000,DinR=2d9,DinI=0
time=220,ADDR=22,xR=-0.011078,xI=0.000000,DinR=fe95,DinI=0
time=230,ADDR=23,xR=0.000580,xI=0.000000,DinR=13,DinI=0
time=240,ADDR=24,xR=0.014618,xI=0.000000,DinR=1df,DinI=0
time=250,ADDR=25,xR=0.012909,xI=0.000000,DinR=1a7,DinI=0
time=260,ADDR=26,xR=-0.035034,xI=0.000000,DinR=fb84,DinI=0
time=270,ADDR=27,xR=-0.048584,xI=0.000000,DinR=f9c8,DinI=0
time=280,ADDR=28,xR=0.005310,xI=0.000000,DinR=ae,DinI=0
time=290,ADDR=29,xR=-0.031342,xI=0.000000,DinR=fbfd,DinI=0
time=300,ADDR=30,xR=0.013550,xI=0.000000,DinR=1bc,DinI=0
time=310,ADDR=31,xR=0.031250,xI=0.000000,DinR=400,DinI=0
time=320,ADDR=32,xR=0.052063,xI=0.000000,DinR=6aa,DinI=0
time=330,ADDR=33,xR=0.044617,xI=0.000000,DinR=5b6,DinI=0
time=340,ADDR=34,xR=-0.010620,xI=0.000000,DinR=fea4,DinI=0
time=350,ADDR=35,xR=-0.001038,xI=0.000000,DinR=ffde,DinI=0
time=360,ADDR=36,xR=-0.025330,xI=0.000000,DinR=fcc2,DinI=0
time=370,ADDR=37,xR=-0.023499,xI=0.000000,DinR=fcfe,DinI=0
time=380,ADDR=38,xR=-0.049774,xI=0.000000,DinR=f9a1,DinI=0
time=390,ADDR=39,xR=0.014435,xI=0.000000,DinR=1d9,DinI=0
time=400,ADDR=40,xR=0.026550,xI=0.000000,DinR=366,DinI=0
time=410,ADDR=41,xR=-0.022552,xI=0.000000,DinR=fd1d,DinI=0
time=420,ADDR=42,xR=0.018829,xI=0.000000,DinR=269,DinI=0
time=430,ADDR=43,xR=-0.008667,xI=0.000000,DinR=fee4,DinI=0
time=440,ADDR=44,xR=0.005768,xI=0.000000,DinR=bd,DinI=0
time=450,ADDR=45,xR=-0.013306,xI=0.000000,DinR=fe4c,DinI=0
time=460,ADDR=46,xR=0.001495,xI=0.000000,DinR=31,DinI=0
time=470,ADDR=47,xR=0.029968,xI=0.000000,DinR=3d6,DinI=0
time=480,ADDR=48,xR=0.004578,xI=0.000000,DinR=96,DinI=0
time=490,ADDR=49,xR=-0.007782,xI=0.000000,DinR=ff01,DinI=0
time=500,ADDR=50,xR=-0.018524,xI=0.000000,DinR=fda1,DinI=0
time=510,ADDR=51,xR=0.028198,xI=0.000000,DinR=39c,DinI=0
time=520,ADDR=52,xR=-0.011902,xI=0.000000,DinR=fe7a,DinI=0
time=530,ADDR=53,xR=0.001434,xI=0.000000,DinR=2f,DinI=0
time=540,ADDR=54,xR=0.022827,xI=0.000000,DinR=2ec,DinI=0
time=550,ADDR=55,xR=0.004730,xI=0.000000,DinR=9b,DinI=0
time=560,ADDR=56,xR=-0.016541,xI=0.000000,DinR=fde2,DinI=0
time=570,ADDR=57,xR=-0.042480,xI=0.000000,DinR=fa90,DinI=0
time=580,ADDR=58,xR=0.030457,xI=0.000000,DinR=3e6,DinI=0
time=590,ADDR=59,xR=-0.024597,xI=0.000000,DinR=fcda,DinI=0
time=600,ADDR=60,xR=0.002686,xI=0.000000,DinR=58,DinI=0
time=610,ADDR=61,xR=-0.003113,xI=0.000000,DinR=ff9a,DinI=0
time=620,ADDR=62,xR=-0.129852,xI=0.000000,DinR=ef61,DinI=0
time=630,ADDR=63,xR=0.041931,xI=0.000000,DinR=55e,DinI=0
time=640,ADDR=64,xR=0.213501,xI=0.000000,DinR=1b54,DinI=0
time=650,ADDR=65,xR=0.041931,xI=0.000000,DinR=55e,DinI=0
time=660,ADDR=66,xR=-0.129852,xI=0.000000,DinR=ef61,DinI=0
time=670,ADDR=67,xR=-0.003113,xI=0.000000,DinR=ff9a,DinI=0
time=680,ADDR=68,xR=0.002686,xI=0.000000,DinR=58,DinI=0
time=690,ADDR=69,xR=-0.024597,xI=0.000000,DinR=fcda,DinI=0
time=700,ADDR=70,xR=0.030457,xI=0.000000,DinR=3e6,DinI=0
time=710,ADDR=71,xR=-0.042480,xI=0.000000,DinR=fa90,DinI=0
time=720,ADDR=72,xR=-0.016541,xI=0.000000,DinR=fde2,DinI=0
time=730,ADDR=73,xR=0.004730,xI=0.000000,DinR=9b,DinI=0
time=740,ADDR=74,xR=0.022827,xI=0.000000,DinR=2ec,DinI=0
time=750,ADDR=75,xR=0.001434,xI=0.000000,DinR=2f,DinI=0
time=760,ADDR=76,xR=-0.011902,xI=0.000000,DinR=fe7a,DinI=0
time=770,ADDR=77,xR=0.028198,xI=0.000000,DinR=39c,DinI=0
time=780,ADDR=78,xR=-0.018524,xI=0.000000,DinR=fda1,DinI=0
time=790,ADDR=79,xR=-0.007782,xI=0.000000,DinR=ff01,DinI=0
time=800,ADDR=80,xR=0.004578,xI=0.000000,DinR=96,DinI=0
time=810,ADDR=81,xR=0.029968,xI=0.000000,DinR=3d6,DinI=0
time=820,ADDR=82,xR=0.001495,xI=0.000000,DinR=31,DinI=0
time=830,ADDR=83,xR=-0.013306,xI=0.000000,DinR=fe4c,DinI=0
time=840,ADDR=84,xR=0.005768,xI=0.000000,DinR=bd,DinI=0
time=850,ADDR=85,xR=-0.008667,xI=0.000000,DinR=fee4,DinI=0
time=860,ADDR=86,xR=0.018829,xI=0.000000,DinR=269,DinI=0
time=870,ADDR=87,xR=-0.022552,xI=0.000000,DinR=fd1d,DinI=0
time=880,ADDR=88,xR=0.026550,xI=0.000000,DinR=366,DinI=0
time=890,ADDR=89,xR=0.014435,xI=0.000000,DinR=1d9,DinI=0
time=900,ADDR=90,xR=-0.049774,xI=0.000000,DinR=f9a1,DinI=0
time=910,ADDR=91,xR=-0.023499,xI=0.000000,DinR=fcfe,DinI=0
time=920,ADDR=92,xR=-0.025330,xI=0.000000,DinR=fcc2,DinI=0
time=930,ADDR=93,xR=-0.001038,xI=0.000000,DinR=ffde,DinI=0
time=940,ADDR=94,xR=-0.010620,xI=0.000000,DinR=fea4,DinI=0
time=950,ADDR=95,xR=0.044617,xI=0.000000,DinR=5b6,DinI=0
time=960,ADDR=96,xR=0.052063,xI=0.000000,DinR=6aa,DinI=0
time=970,ADDR=97,xR=0.031250,xI=0.000000,DinR=400,DinI=0
time=980,ADDR=98,xR=0.013550,xI=0.000000,DinR=1bc,DinI=0
time=990,ADDR=99,xR=-0.031342,xI=0.000000,DinR=fbfd,DinI=0
time=1000,ADDR=100,xR=0.005310,xI=0.000000,DinR=ae,DinI=0
time=1010,ADDR=101,xR=-0.048584,xI=0.000000,DinR=f9c8,DinI=0
time=1020,ADDR=102,xR=-0.035034,xI=0.000000,DinR=fb84,DinI=0
time=1030,ADDR=103,xR=0.012909,xI=0.000000,DinR=1a7,DinI=0
time=1040,ADDR=104,xR=0.014618,xI=0.000000,DinR=1df,DinI=0
time=1050,ADDR=105,xR=0.000580,xI=0.000000,DinR=13,DinI=0
time=1060,ADDR=106,xR=-0.011078,xI=0.000000,DinR=fe95,DinI=0
time=1070,ADDR=107,xR=0.022247,xI=0.000000,DinR=2d9,DinI=0
time=1080,ADDR=108,xR=-0.020203,xI=0.000000,DinR=fd6a,DinI=0
time=1090,ADDR=109,xR=0.002747,xI=0.000000,DinR=5a,DinI=0
time=1100,ADDR=110,xR=-0.001556,xI=0.000000,DinR=ffcd,DinI=0
time=1110,ADDR=111,xR=0.019440,xI=0.000000,DinR=27d,DinI=0
time=1120,ADDR=112,xR=0.026672,xI=0.000000,DinR=36a,DinI=0
time=1130,ADDR=113,xR=-0.037201,xI=0.000000,DinR=fb3d,DinI=0
time=1140,ADDR=114,xR=0.012573,xI=0.000000,DinR=19c,DinI=0
time=1150,ADDR=115,xR=0.001404,xI=0.000000,DinR=2e,DinI=0
time=1160,ADDR=116,xR=0.005463,xI=0.000000,DinR=b3,DinI=0
time=1170,ADDR=117,xR=-0.003143,xI=0.000000,DinR=ff99,DinI=0
time=1180,ADDR=118,xR=0.013763,xI=0.000000,DinR=1c3,DinI=0
time=1190,ADDR=119,xR=0.025696,xI=0.000000,DinR=34a,DinI=0
time=1200,ADDR=120,xR=-0.045441,xI=0.000000,DinR=fa2f,DinI=0
time=1210,ADDR=121,xR=-0.011261,xI=0.000000,DinR=fe8f,DinI=0
time=1220,ADDR=122,xR=0.002899,xI=0.000000,DinR=5f,DinI=0
time=1230,ADDR=123,xR=-0.005981,xI=0.000000,DinR=ff3c,DinI=0
time=1240,ADDR=124,xR=-0.003418,xI=0.000000,DinR=ff90,DinI=0
time=1250,ADDR=125,xR=-0.010681,xI=0.000000,DinR=fea2,DinI=0
time=1260,ADDR=126,xR=-0.110016,xI=0.000000,DinR=f1eb,DinI=0
time=1270,ADDR=127,xR=0.013672,xI=0.000000,DinR=1c0,DinI=0
State-0 time=1270,ADDR=0,ADDR_n=0,xR=0.244751,xI=0.000000,InR=0.244751,InI=0.000000
State-0 time=1270,ADDR=1,ADDR_n=64,xR=0.213501,xI=0.000000,InR=0.213501,InI=0.000000
State-0 time=1270,ADDR=2,ADDR_n=32,xR=0.052063,xI=0.000000,InR=0.052063,InI=0.000000
State-0 time=1270,ADDR=3,ADDR_n=96,xR=0.052063,xI=0.000000,InR=0.052063,InI=0.000000
State-0 time=1270,ADDR=4,ADDR_n=16,xR=0.026672,xI=0.000000,InR=0.026672,InI=0.000000
State-0 time=1270,ADDR=5,ADDR_n=80,xR=0.004578,xI=0.000000,InR=0.004578,InI=0.000000
State-0 time=1270,ADDR=6,ADDR_n=48,xR=0.004578,xI=0.000000,InR=0.004578,InI=0.000000
State-0 time=1270,ADDR=7,ADDR_n=112,xR=0.026672,xI=0.000000,InR=0.026672,InI=0.000000
State-0 time=1270,ADDR=8,ADDR_n=8,xR=-0.045441,xI=0.000000,InR=-0.045441,InI=0.000000
State-0 time=1270,ADDR=9,ADDR_n=72,xR=-0.016541,xI=0.000000,InR=-0.016541,InI=0.000000
State-0 time=1270,ADDR=10,ADDR_n=40,xR=0.026550,xI=0.000000,InR=0.026550,InI=0.000000
State-0 time=1270,ADDR=11,ADDR_n=104,xR=0.014618,xI=0.000000,InR=0.014618,InI=0.000000
State-0 time=1270,ADDR=12,ADDR_n=24,xR=0.014618,xI=0.000000,InR=0.014618,InI=0.000000
State-0 time=1270,ADDR=13,ADDR_n=88,xR=0.026550,xI=0.000000,InR=0.026550,InI=0.000000
State-0 time=1270,ADDR=14,ADDR_n=56,xR=-0.016541,xI=0.000000,InR=-0.016541,InI=0.000000
State-0 time=1270,ADDR=15,ADDR_n=120,xR=-0.045441,xI=0.000000,InR=-0.045441,InI=0.000000
State-0 time=1270,ADDR=16,ADDR_n=4,xR=-0.003418,xI=0.000000,InR=-0.003418,InI=0.000000
State-0 time=1270,ADDR=17,ADDR_n=68,xR=0.002686,xI=0.000000,InR=0.002686,InI=0.000000
State-0 time=1270,ADDR=18,ADDR_n=36,xR=-0.025330,xI=0.000000,InR=-0.025330,InI=0.000000
State-0 time=1270,ADDR=19,ADDR_n=100,xR=0.005310,xI=0.000000,InR=0.005310,InI=0.000000
State-0 time=1270,ADDR=20,ADDR_n=20,xR=-0.020203,xI=0.000000,InR=-0.020203,InI=0.000000
State-0 time=1270,ADDR=21,ADDR_n=84,xR=0.005768,xI=0.000000,InR=0.005768,InI=0.000000
State-0 time=1270,ADDR=22,ADDR_n=52,xR=-0.011902,xI=0.000000,InR=-0.011902,InI=0.000000
State-0 time=1270,ADDR=23,ADDR_n=116,xR=0.005463,xI=0.000000,InR=0.005463,InI=0.000000
State-0 time=1270,ADDR=24,ADDR_n=12,xR=0.005463,xI=0.000000,InR=0.005463,InI=0.000000
State-0 time=1270,ADDR=25,ADDR_n=76,xR=-0.011902,xI=0.000000,InR=-0.011902,InI=0.000000
State-0 time=1270,ADDR=26,ADDR_n=44,xR=0.005768,xI=0.000000,InR=0.005768,InI=0.000000
State-0 time=1270,ADDR=27,ADDR_n=108,xR=-0.020203,xI=0.000000,InR=-0.020203,InI=0.000000
State-0 time=1270,ADDR=28,ADDR_n=28,xR=0.005310,xI=0.000000,InR=0.005310,InI=0.000000
State-0 time=1270,ADDR=29,ADDR_n=92,xR=-0.025330,xI=0.000000,InR=-0.025330,InI=0.000000
State-0 time=1270,ADDR=30,ADDR_n=60,xR=0.002686,xI=0.000000,InR=0.002686,InI=0.000000
State-0 time=1270,ADDR=31,ADDR_n=124,xR=-0.003418,xI=0.000000,InR=-0.003418,InI=0.000000
State-0 time=1270,ADDR=32,ADDR_n=2,xR=-0.110016,xI=0.000000,InR=-0.110016,InI=0.000000
State-0 time=1270,ADDR=33,ADDR_n=66,xR=-0.129852,xI=0.000000,InR=-0.129852,InI=0.000000
State-0 time=1270,ADDR=34,ADDR_n=34,xR=-0.010620,xI=0.000000,InR=-0.010620,InI=0.000000
State-0 time=1270,ADDR=35,ADDR_n=98,xR=0.013550,xI=0.000000,InR=0.013550,InI=0.000000
State-0 time=1270,ADDR=36,ADDR_n=18,xR=-0.001556,xI=0.000000,InR=-0.001556,InI=0.000000
State-0 time=1270,ADDR=37,ADDR_n=82,xR=0.001495,xI=0.000000,InR=0.001495,InI=0.000000
State-0 time=1270,ADDR=38,ADDR_n=50,xR=-0.018524,xI=0.000000,InR=-0.018524,InI=0.000000
State-0 time=1270,ADDR=39,ADDR_n=114,xR=0.012573,xI=0.000000,InR=0.012573,InI=0.000000
State-0 time=1270,ADDR=40,ADDR_n=10,xR=0.013763,xI=0.000000,InR=0.013763,InI=0.000000
State-0 time=1270,ADDR=41,ADDR_n=74,xR=0.022827,xI=0.000000,InR=0.022827,InI=0.000000
State-0 time=1270,ADDR=42,ADDR_n=42,xR=0.018829,xI=0.000000,InR=0.018829,InI=0.000000
State-0 time=1270,ADDR=43,ADDR_n=106,xR=-0.011078,xI=0.000000,InR=-0.011078,InI=0.000000
State-0 time=1270,ADDR=44,ADDR_n=26,xR=-0.035034,xI=0.000000,InR=-0.035034,InI=0.000000
State-0 time=1270,ADDR=45,ADDR_n=90,xR=-0.049774,xI=0.000000,InR=-0.049774,InI=0.000000
State-0 time=1270,ADDR=46,ADDR_n=58,xR=0.030457,xI=0.000000,InR=0.030457,InI=0.000000
State-0 time=1270,ADDR=47,ADDR_n=122,xR=0.002899,xI=0.000000,InR=0.002899,InI=0.000000
State-0 time=1270,ADDR=48,ADDR_n=6,xR=0.002899,xI=0.000000,InR=0.002899,InI=0.000000
State-0 time=1270,ADDR=49,ADDR_n=70,xR=0.030457,xI=0.000000,InR=0.030457,InI=0.000000
State-0 time=1270,ADDR=50,ADDR_n=38,xR=-0.049774,xI=0.000000,InR=-0.049774,InI=0.000000
State-0 time=1270,ADDR=51,ADDR_n=102,xR=-0.035034,xI=0.000000,InR=-0.035034,InI=0.000000
State-0 time=1270,ADDR=52,ADDR_n=22,xR=-0.011078,xI=0.000000,InR=-0.011078,InI=0.000000
State-0 time=1270,ADDR=53,ADDR_n=86,xR=0.018829,xI=0.000000,InR=0.018829,InI=0.000000
State-0 time=1270,ADDR=54,ADDR_n=54,xR=0.022827,xI=0.000000,InR=0.022827,InI=0.000000
State-0 time=1270,ADDR=55,ADDR_n=118,xR=0.013763,xI=0.000000,InR=0.013763,InI=0.000000
State-0 time=1270,ADDR=56,ADDR_n=14,xR=0.012573,xI=0.000000,InR=0.012573,InI=0.000000
State-0 time=1270,ADDR=57,ADDR_n=78,xR=-0.018524,xI=0.000000,InR=-0.018524,InI=0.000000
State-0 time=1270,ADDR=58,ADDR_n=46,xR=0.001495,xI=0.000000,InR=0.001495,InI=0.000000
State-0 time=1270,ADDR=59,ADDR_n=110,xR=-0.001556,xI=0.000000,InR=-0.001556,InI=0.000000
State-0 time=1270,ADDR=60,ADDR_n=30,xR=0.013550,xI=0.000000,InR=0.013550,InI=0.000000
State-0 time=1270,ADDR=61,ADDR_n=94,xR=-0.010620,xI=0.000000,InR=-0.010620,InI=0.000000
State-0 time=1270,ADDR=62,ADDR_n=62,xR=-0.129852,xI=0.000000,InR=-0.129852,InI=0.000000
State-0 time=1270,ADDR=63,ADDR_n=126,xR=-0.110016,xI=0.000000,InR=-0.110016,InI=0.000000
State-0 time=1270,ADDR=64,ADDR_n=1,xR=0.013672,xI=0.000000,InR=0.013672,InI=0.000000
State-0 time=1270,ADDR=65,ADDR_n=65,xR=0.041931,xI=0.000000,InR=0.041931,InI=0.000000
State-0 time=1270,ADDR=66,ADDR_n=33,xR=0.044617,xI=0.000000,InR=0.044617,InI=0.000000
State-0 time=1270,ADDR=67,ADDR_n=97,xR=0.031250,xI=0.000000,InR=0.031250,InI=0.000000
State-0 time=1270,ADDR=68,ADDR_n=17,xR=0.019440,xI=0.000000,InR=0.019440,InI=0.000000
State-0 time=1270,ADDR=69,ADDR_n=81,xR=0.029968,xI=0.000000,InR=0.029968,InI=0.000000
State-0 time=1270,ADDR=70,ADDR_n=49,xR=-0.007782,xI=0.000000,InR=-0.007782,InI=0.000000
State-0 time=1270,ADDR=71,ADDR_n=113,xR=-0.037201,xI=0.000000,InR=-0.037201,InI=0.000000
State-0 time=1270,ADDR=72,ADDR_n=9,xR=0.025696,xI=0.000000,InR=0.025696,InI=0.000000
State-0 time=1270,ADDR=73,ADDR_n=73,xR=0.004730,xI=0.000000,InR=0.004730,InI=0.000000
State-0 time=1270,ADDR=74,ADDR_n=41,xR=-0.022552,xI=0.000000,InR=-0.022552,InI=0.000000
State-0 time=1270,ADDR=75,ADDR_n=105,xR=0.000580,xI=0.000000,InR=0.000580,InI=0.000000
State-0 time=1270,ADDR=76,ADDR_n=25,xR=0.012909,xI=0.000000,InR=0.012909,InI=0.000000
State-0 time=1270,ADDR=77,ADDR_n=89,xR=0.014435,xI=0.000000,InR=0.014435,InI=0.000000
State-0 time=1270,ADDR=78,ADDR_n=57,xR=-0.042480,xI=0.000000,InR=-0.042480,InI=0.000000
State-0 time=1270,ADDR=79,ADDR_n=121,xR=-0.011261,xI=0.000000,InR=-0.011261,InI=0.000000
State-0 time=1270,ADDR=80,ADDR_n=5,xR=-0.005981,xI=0.000000,InR=-0.005981,InI=0.000000
State-0 time=1270,ADDR=81,ADDR_n=69,xR=-0.024597,xI=0.000000,InR=-0.024597,InI=0.000000
State-0 time=1270,ADDR=82,ADDR_n=37,xR=-0.023499,xI=0.000000,InR=-0.023499,InI=0.000000
State-0 time=1270,ADDR=83,ADDR_n=101,xR=-0.048584,xI=0.000000,InR=-0.048584,InI=0.000000
State-0 time=1270,ADDR=84,ADDR_n=21,xR=0.022247,xI=0.000000,InR=0.022247,InI=0.000000
State-0 time=1270,ADDR=85,ADDR_n=85,xR=-0.008667,xI=0.000000,InR=-0.008667,InI=0.000000
State-0 time=1270,ADDR=86,ADDR_n=53,xR=0.001434,xI=0.000000,InR=0.001434,InI=0.000000
State-0 time=1270,ADDR=87,ADDR_n=117,xR=-0.003143,xI=0.000000,InR=-0.003143,InI=0.000000
State-0 time=1270,ADDR=88,ADDR_n=13,xR=0.001404,xI=0.000000,InR=0.001404,InI=0.000000
State-0 time=1270,ADDR=89,ADDR_n=77,xR=0.028198,xI=0.000000,InR=0.028198,InI=0.000000
State-0 time=1270,ADDR=90,ADDR_n=45,xR=-0.013306,xI=0.000000,InR=-0.013306,InI=0.000000
State-0 time=1270,ADDR=91,ADDR_n=109,xR=0.002747,xI=0.000000,InR=0.002747,InI=0.000000
State-0 time=1270,ADDR=92,ADDR_n=29,xR=-0.031342,xI=0.000000,InR=-0.031342,InI=0.000000
State-0 time=1270,ADDR=93,ADDR_n=93,xR=-0.001038,xI=0.000000,InR=-0.001038,InI=0.000000
State-0 time=1270,ADDR=94,ADDR_n=61,xR=-0.003113,xI=0.000000,InR=-0.003113,InI=0.000000
State-0 time=1270,ADDR=95,ADDR_n=125,xR=-0.010681,xI=0.000000,InR=-0.010681,InI=0.000000
State-0 time=1270,ADDR=96,ADDR_n=3,xR=-0.010681,xI=0.000000,InR=-0.010681,InI=0.000000
State-0 time=1270,ADDR=97,ADDR_n=67,xR=-0.003113,xI=0.000000,InR=-0.003113,InI=0.000000
State-0 time=1270,ADDR=98,ADDR_n=35,xR=-0.001038,xI=0.000000,InR=-0.001038,InI=0.000000
State-0 time=1270,ADDR=99,ADDR_n=99,xR=-0.031342,xI=0.000000,InR=-0.031342,InI=0.000000
State-0 time=1270,ADDR=100,ADDR_n=19,xR=0.002747,xI=0.000000,InR=0.002747,InI=0.000000
State-0 time=1270,ADDR=101,ADDR_n=83,xR=-0.013306,xI=0.000000,InR=-0.013306,InI=0.000000
State-0 time=1270,ADDR=102,ADDR_n=51,xR=0.028198,xI=0.000000,InR=0.028198,InI=0.000000
State-0 time=1270,ADDR=103,ADDR_n=115,xR=0.001404,xI=0.000000,InR=0.001404,InI=0.000000
State-0 time=1270,ADDR=104,ADDR_n=11,xR=-0.003143,xI=0.000000,InR=-0.003143,InI=0.000000
State-0 time=1270,ADDR=105,ADDR_n=75,xR=0.001434,xI=0.000000,InR=0.001434,InI=0.000000
State-0 time=1270,ADDR=106,ADDR_n=43,xR=-0.008667,xI=0.000000,InR=-0.008667,InI=0.000000
State-0 time=1270,ADDR=107,ADDR_n=107,xR=0.022247,xI=0.000000,InR=0.022247,InI=0.000000
State-0 time=1270,ADDR=108,ADDR_n=27,xR=-0.048584,xI=0.000000,InR=-0.048584,InI=0.000000
State-0 time=1270,ADDR=109,ADDR_n=91,xR=-0.023499,xI=0.000000,InR=-0.023499,InI=0.000000
State-0 time=1270,ADDR=110,ADDR_n=59,xR=-0.024597,xI=0.000000,InR=-0.024597,InI=0.000000
State-0 time=1270,ADDR=111,ADDR_n=123,xR=-0.005981,xI=0.000000,InR=-0.005981,InI=0.000000
State-0 time=1270,ADDR=112,ADDR_n=7,xR=-0.011261,xI=0.000000,InR=-0.011261,InI=0.000000
State-0 time=1270,ADDR=113,ADDR_n=71,xR=-0.042480,xI=0.000000,InR=-0.042480,InI=0.000000
State-0 time=1270,ADDR=114,ADDR_n=39,xR=0.014435,xI=0.000000,InR=0.014435,InI=0.000000
State-0 time=1270,ADDR=115,ADDR_n=103,xR=0.012909,xI=0.000000,InR=0.012909,InI=0.000000
State-0 time=1270,ADDR=116,ADDR_n=23,xR=0.000580,xI=0.000000,InR=0.000580,InI=0.000000
State-0 time=1270,ADDR=117,ADDR_n=87,xR=-0.022552,xI=0.000000,InR=-0.022552,InI=0.000000
State-0 time=1270,ADDR=118,ADDR_n=55,xR=0.004730,xI=0.000000,InR=0.004730,InI=0.000000
State-0 time=1270,ADDR=119,ADDR_n=119,xR=0.025696,xI=0.000000,InR=0.025696,InI=0.000000
State-0 time=1270,ADDR=120,ADDR_n=15,xR=-0.037201,xI=0.000000,InR=-0.037201,InI=0.000000
State-0 time=1270,ADDR=121,ADDR_n=79,xR=-0.007782,xI=0.000000,InR=-0.007782,InI=0.000000
State-0 time=1270,ADDR=122,ADDR_n=47,xR=0.029968,xI=0.000000,InR=0.029968,InI=0.000000
State-0 time=1270,ADDR=123,ADDR_n=111,xR=0.019440,xI=0.000000,InR=0.019440,InI=0.000000
State-0 time=1270,ADDR=124,ADDR_n=31,xR=0.031250,xI=0.000000,InR=0.031250,InI=0.000000
State-0 time=1270,ADDR=125,ADDR_n=95,xR=0.044617,xI=0.000000,InR=0.044617,InI=0.000000
State-0 time=1270,ADDR=126,ADDR_n=63,xR=0.041931,xI=0.000000,InR=0.041931,InI=0.000000
State-0 time=1270,ADDR=127,ADDR_n=127,xR=0.013672,xI=0.000000,InR=0.013672,InI=0.000000
State-1 time=1270,j=0,InR[i]=0.244751,InR[i+1]=0.213501,InI[i]=0.000000,InI[i+1]=0.000000,I0R=0.458252,I0I=0.000000
State-1 time=1270,j=1,InR[i]=0.244751,InR[i+1]=0.213501,InI[i]=0.000000,InI[i+1]=0.000000,I0R=0.031250,I0I=0.000000
State-1 time=1270,j=2,InR[i]=0.052063,InR[i+1]=0.052063,InI[i]=0.000000,InI[i+1]=0.000000,I0R=0.104126,I0I=0.000000
State-1 time=1270,j=3,InR[i]=0.052063,InR[i+1]=0.052063,InI[i]=0.000000,InI[i+1]=0.000000,I0R=0.000000,I0I=0.000000
State-1 time=1270,j=4,InR[i]=0.026672,InR[i+1]=0.004578,InI[i]=0.000000,InI[i+1]=0.000000,I0R=0.031250,I0I=0.000000
State-1 time=1270,j=5,InR[i]=0.026672,InR[i+1]=0.004578,InI[i]=0.000000,InI[i+1]=0.000000,I0R=0.022095,I0I=0.000000
State-1 time=1270,j=6,InR[i]=0.004578,InR[i+1]=0.026672,InI[i]=0.000000,InI[i+1]=0.000000,I0R=0.031250,I0I=0.000000
State-1 time=1270,j=7,InR[i]=0.004578,InR[i+1]=0.026672,InI[i]=0.000000,InI[i+1]=0.000000,I0R=-0.022095,I0I=0.000000
State-1 time=1270,j=8,InR[i]=-0.045441,InR[i+1]=-0.016541,InI[i]=0.000000,InI[i+1]=0.000000,I0R=-0.061981,I0I=0.000000
State-1 time=1270,j=9,InR[i]=-0.045441,InR[i+1]=-0.016541,InI[i]=0.000000,InI[i+1]=0.000000,I0R=-0.028900,I0I=0.000000
State-1 time=1270,j=10,InR[i]=0.026550,InR[i+1]=0.014618,InI[i]=0.000000,InI[i+1]=0.000000,I0R=0.041168,I0I=0.000000
State-1 time=1270,j=11,InR[i]=0.026550,InR[i+1]=0.014618,InI[i]=0.000000,InI[i+1]=0.000000,I0R=0.011932,I0I=0.000000
State-1 time=1270,j=12,InR[i]=0.014618,InR[i+1]=0.026550,InI[i]=0.000000,InI[i+1]=0.000000,I0R=0.041168,I0I=0.000000
